{
	"VersionName" : "1.0.0.4",
	"Message" : "\n-> What's new:\n    Update the Probe Clock.\n\n-> Download from: \n    Version_4a_norge",
	"VersionCode" : "1",
	"Date" : "20191129",
	"Path1" : "http://www.meda.com.cn/MD6000P_NO.apk",
	"Path2" : "https://github.com/pcjiushizhu/MEDAScanUpdate/raw/master/MEDA_BladderScan_Norge.apk",
	"checkPath1" : "http://www.meda.com.cn/Version_Norge.json",
	"checkPath2" : "https://raw.githubusercontent.com/pcjiushizhu/MEDAScanUpdate/master/Version_Norge.json",
	"forceUpdate" : "false",
	"firstPath" : "Path1",
	"Source" : "MEDA_BladderScan_FDA.apk"
}